a:2:{s:16:"notificationType";s:11:"transaction";s:16:"notificationCode";s:36:"73381E896EAE6EAE17DCC476CFB2B12EE221";}
---BREAK---a:2:{s:16:"notificationType";s:11:"transaction";s:16:"notificationCode";s:36:"A90B49F9AA2DAA2D077DD4BB3FA403C7BA85";}
---BREAK---a:2:{s:16:"notificationType";s:11:"transaction";s:16:"notificationCode";s:36:"59FC7A2EC6F8C6F878C334955F97640D0181";}
---BREAK---